{
  "racingCars": [
    {
      "name": "Ferrari 488 GTB",
      "price": 250000,
      "imageUrl": "https://autoua.net/media/uploads/ferrari/ferrari_488_gtb_001.jpg",
      "sku": "A123456",
      "color": "red"
    },
    {
      "name": "Porsche 911 GT3",
      "price": 180000,
      "imageUrl": "https://www.autocentre.ua/wp-content/uploads/2023/02/2023-porsche-911-gt3-rs-tribute-to-carrera-rs-makes-us-debut.jpg",
      "sku": "B789012",
      "color": "white"
    },
    {
      "name": "Lamborghini Huracan",
      "price": 300000,
      "imageUrl": "https://repost.uz/storage/uploads/550-1667818664-avto11-post-material.jpeg",
      "sku": "C345678",
      "color": "green"
    },
    {
      "name": "McLaren 720S",
      "price": 280000,
      "imageUrl": "https://cdn.motor1.com/images/mgl/JJVEA/s3/mclaren-720s.jpg",
      "sku": "D901234",
      "color": "white"
    },
    {
      "name": "Aston Martin Vantage",
      "price": 220000,
      "imageUrl": "https://www.startech.de/wp-content/uploads/2019/02/startech-aston-martin-vantage-tuning-refinement-overview-front-45-1-730x365.jpg",
      "sku": "E567890",
      "color": "white"
    },
    {
      "name": "Nissan GT-R",
      "price": 120000,
      "imageUrl": "https://www.autocentre.ua/wp-content/uploads/2023/05/2024-nissan-gt-r-nismo-1-1024x576-1.jpg",
      "sku": "F123450",
      "color": "gray"
    },
    {
      "name": "Ford Mustang GT350",
      "price": 75000,
      "imageUrl": "https://media.evo.co.uk/image/upload/v1579704349/evo/2020/01/Fathouse%20Performance%20Mustang%20GT350-8.jpg",
      "sku": "G678901",
      "color": "black"
    },
    {
      "name": "Chevrolet Corvette Z06",
      "price": 90000,
      "imageUrl": "https://cdn.motor1.com/images/mgl/jbGeN/s1/2023-chevrolet-corvette-z06-front-view.webp",
      "sku": "H234567",
      "color": "orange"
    },
    {
      "name": "Maserati GranTurismo",
      "price": 200000,
      "imageUrl": "https://phantom-marca.unidadeditorial.es/ca2a4ad19e906c4130263ff3863df0c9/resize/828/f/jpg/assets/multimedia/imagenes/2023/02/13/16762901613958.jpg",
      "sku": "I890123",
      "color": "gray"
    },
    {
      "name": "Bugatti Chiron",
      "price": 3000000,
      "imageUrl": "https://img.freepik.com/premium-photo/bugatti-chiron-is-a-luxury-car-with-a-supercar-design_873925-25483.jpg",
      "sku": "J456789",
      "color": "blue"
    }
  ]
}